"Version","Revision","N","ProfileCategory","ProfileName","N.Errors","N.Notices","N.Warnings"
"14.x","r57302","01","Featured Site Profiles","Collaborative_Community_12x","0","17","0"
"14.x","r57302","02","Featured Site Profiles","Company_Intranet_12x","0","36","8"
"14.x","r57302","03","Featured Site Profiles","Personal_Blog_and_Profile_12x","0","25","8"
"14.x","r57302","04","Featured Site Profiles","Small_Organization_Web_Presence_12x","0","11","0"
"14.x","r57302","05","Useful Micro Configurations","Collaborative_Community_Wiki_menupage","0","0","0"
"14.x","r57302","06","Useful Micro Configurations","Random_header_images","0","0","0"
"14.x","r57302","07","Useful Micro Configurations","Multilingual_Wiki_12x","0","0","0"
"14.x","r57302","08","Useful Micro Configurations","Countries_By_Region","0","0","0"
"14.x","r57302","09","Useful Changes in Display Mode","Mobile","0","1","0"
"14.x","r57302","10","Useful Changes in Display Mode","Slideshow_demo","0","0","0"
"14.x","r57302","11","Useful New Technology Configurations","Together","0","0","0"
"14.x","r57302","12","Useful New Technology Configurations","Post-it_Sticky_Note","0","0","0"
"14.x","r57302","13","Useful Administration Configurations","Debug_Mode_Enabled","0","0","0"
"14.x","r57302","14","Useful Administration Configurations","Debug_Mode_Disabled","0","0","0"
"14.x","r57302","15","Demo of Commonly Used Configurations","User_Trackers","0","0","0"
"14.x","r57302","16","Demo of Commonly Used Configurations","Custom_Contact_Form","0","0","0"
"14.x","r57302","17","Demo of Commonly Used Configurations","Dynamic_items_list","0","0","0"
"14.x","r57302","18","Demo of Commonly Used Configurations","Sortable Tables","0","0","0"
"14.x","r57302","19","Demo of Interesting Use Cases","Bug_Tracker","0","0","0"
"14.x","r57302","20","Demo of Interesting Use Cases","Time_Sheet","0","2","0"
"14.x","r57302","21","Demo of Interesting Use Cases","Tracker_as_Calendar_12 ","0","0","0"
"14.x","r57302","22","Demo of Interesting Use Cases","Voting_System","0","0","0"
"14.x","r57302","23","Demo of Other Interesting Use Cases","Structured Master Documents","0","0","0"
"14.x","r57302","24","Demo of Other Interesting Use Cases","Consensus Forums","0","0","0"
"14.x","r57302","25","Demo of Other Interesting Use Cases","Barter_Market","0","15","0"
"14.x","r57302","26","Demo of Other Interesting Use Cases","Revision Approval","0","0","0"
"14.x","r57302","27","Demo of More Advanced Configurations","Shoping_Cart","0","0","0"
"14.x","r57302","28","Demo of More Advanced Configurations","Easy GeoBlog","0","0","0"
"14.x","r57302","29","Highly Specialized Configurations","Cartograf","0","14","0"
"14.x","r57302","30","Highly Specialized Configurations","R_demo","0","0","0"
"14.x","r57302","31","Highly Specialized Configurations","R_Heatmaps","0","0","0"
